…
The results I will store in another source table, `ein_lookup_table`, for analysis. 
* And finally, within DBT, I'll join the ein_lookup_table to `ny_anthem_ppo` and find out 
whether for a given json blob (primary key) if there is at least one `plan_id` that has a location 
mapped in the `ein_lookup_table`.
  * The logic here is that there is a possibility that a business that isn't NY is mapped 
  to a location URL that contains `NY_`, given that there is a many-to-many relationship, we are not filtering the plan
  name to have any phrase of `NY`. 
  * If the goal is to find plan_ids that are Anthem NY PPO then we will need to map to 
  the `ein_lookup_table` as check if the plan_id has an associated location between `in_network_files` &  `ein_lookup_table`.
  This will also require a small update to the location field to include `ppo`, before the mapping, 
  as mentioned in the Analysis. Below contains a data model example of `ein_lookup_table` & using the model `ny_anthem_ppo` we can quickly create a
  sql join and filtering to ensure that locations within the index file for a given plan appears in the potential lookup
  table.
```
┌────────────┬──────────────────────────────────────────────────────────────────────────────────────────────────────┐
│  ein_id    │                                           location                                                   │
│  varchar   │                                         list(varchar)                                                │
├────────────┼──────────────────────────────────────────────────────────────────────────────────────────────────────┤
│ 13-3999322 │ [CA_ELHO_ELHS_ELHOMEDELHO.json.gz, NY_PPO_HYREMED0029.json.gz,                                       │
│            │   2025-03_NH_35B0_in-network-rates_2_of_4.json.gz]                                                   │
│ 13-3447560 │ [2025-03_MD_08B0_in-network-rates_6_of_35.json.gz, NY_PPO_HXQTMED0000.json.gz]                       │                              │
│ 11-3615133 │ [NY_EPO_HXQTMED0000.json.gz]                                                                         │ 
├────────────┴──────────────────────────────────────────────────────────────────────────────────────────────────────┤
│ 3 rows (3 shown)                                                                                      2 columns   │
└───────────────────────────────────────────────────────────────────────────────────────────────────────────────────┘
```
…
